{
    "setting": {
        "urlCheck": true,
        "es6": true,
        "postcss": true,
        "minified": true,
        "newFeature": true
    },
    "appid": "tt30d1466caffbfab8",
    "projectname": "toutiao-app"
}